{"photos":{"page":1,"pages":165924,"perpage":2,"total":"331847","photo":[{"id":"20754001536","owner":"60016203@N02","secret":"5ae7af5b7d","server":"719","farm":1,"title":"Saturday Ride","ispublic":1,"isfriend":0,"isfamily":0,"latitude":"-37.825926","longitude":"144.980667","accuracy":"16","context":0,"place_id":"ZizvRS5TWrx7PZcsEQ","woeid":"28676677","geo_is_family":0,"geo_is_friend":0,"geo_is_contact":0,"geo_is_public":1,"url_t":"https:\/\/farm1.staticflickr.com\/719\/20754001536_5ae7af5b7d_t.jpg","height_t":"67","width_t":"100"},{"id":"20780246975","owner":"60016203@N02","secret":"2c1014445a","server":"5667","farm":6,"title":"Huracan","ispublic":1,"isfriend":0,"isfamily":0,"latitude":"-37.829627","longitude":"145.013266","accuracy":"16","context":0,"place_id":"gCDn9aJTUL35LtyfyQ","woeid":"22721856","geo_is_family":0,"geo_is_friend":0,"geo_is_contact":0,"geo_is_public":1,"url_t":"https:\/\/farm6.staticflickr.com\/5667\/20780246975_2c1014445a_t.jpg","height_t":"75","width_t":"100"}]},"stat":"ok"}